log.log
Chronologic VCS simulator copyright 1991-2017
Contains Synopsys proprietary information.
Compiler version N-2017.12-SP2-2_Full64; Runtime version N-2017.12-SP2-2_Full64;  Dec  3 11:59 2020

TIME = 0
CONTROL:   CLK=0	RST_=0
OPERATION: INSTRUCTION=[xxxx][x][xxxxxxx][xxxxxxxxxxxx][xxxxxxxx]
           PHASE=FETCH	OPCODE=xxxx	ADDR=[00]00000	I_DATA=[x]xxxxxxxx
STORAGE:   MEM[0]=x	MEM[1]=x	MEM[2]=x
REGISTERS: A_REG=0	B_REG=0  	RDR_REG=x	DIR_REG=0	PORT_REG=x
SIGNALS:   RAMDATA=1	ALUOUT=[x]xxxxxxxx	BUS=00000001
FLAGS:     CF=x	ZF=x	SF=x	OF=x	IF=x
CONTROLS:  IR_EN=1	A_EN=0	B_EN=0	PDR_EN=0	PORT_EN=0	PORT_RD=1
           PC_EN=0	PC_LOAD=0	ALU_EN=0	ALU_OE=0	RAM_OE=0	RDR_EN=0	RAM_CS=1
I/O:       IO=[1]00000001
 

TIME = 50
CONTROL:   CLK=1	RST_=0
OPERATION: INSTRUCTION=[0001][0][1000011][000000000000][00000000]
           PHASE=FETCH	OPCODE=0001	ADDR=[00]00000	I_DATA=[0]00000000
STORAGE:   MEM[0]=x	MEM[1]=x	MEM[2]=x
REGISTERS: A_REG=0	B_REG=0  	RDR_REG=x	DIR_REG=0	PORT_REG=x
SIGNALS:   RAMDATA=1	ALUOUT=[x]xxxxxxxx	BUS=00000001
FLAGS:     CF=x	ZF=x	SF=x	OF=x	IF=0
CONTROLS:  IR_EN=1	A_EN=0	B_EN=0	PDR_EN=0	PORT_EN=0	PORT_RD=1
           PC_EN=0	PC_LOAD=0	ALU_EN=0	ALU_OE=0	RAM_OE=0	RDR_EN=0	RAM_CS=1
I/O:       IO=[1]00000001
 

TIME = 100
CONTROL:   CLK=0	RST_=1
OPERATION: INSTRUCTION=[0001][0][1000011][000000000000][00000000]
           PHASE=FETCH	OPCODE=0001	ADDR=[00]00000	I_DATA=[0]00000000
STORAGE:   MEM[0]=x	MEM[1]=x	MEM[2]=x
REGISTERS: A_REG=0	B_REG=0  	RDR_REG=x	DIR_REG=0	PORT_REG=x
SIGNALS:   RAMDATA=1	ALUOUT=[x]xxxxxxxx	BUS=00000001
FLAGS:     CF=x	ZF=x	SF=x	OF=x	IF=0
CONTROLS:  IR_EN=1	A_EN=0	B_EN=0	PDR_EN=0	PORT_EN=0	PORT_RD=1
           PC_EN=0	PC_LOAD=0	ALU_EN=0	ALU_OE=0	RAM_OE=0	RDR_EN=0	RAM_CS=1
I/O:       IO=[1]00000001
 

TIME = 150
CONTROL:   CLK=1	RST_=1
OPERATION: INSTRUCTION=[0001][0][1000011][000000000000][00000000]
           PHASE=FETCH	OPCODE=0001	ADDR=[00]00000	I_DATA=[0]00000000
STORAGE:   MEM[0]=x	MEM[1]=x	MEM[2]=x
REGISTERS: A_REG=0	B_REG=0  	RDR_REG=x	DIR_REG=0	PORT_REG=x
SIGNALS:   RAMDATA=1	ALUOUT=[x]xxxxxxxx	BUS=00000001
FLAGS:     CF=x	ZF=x	SF=x	OF=x	IF=0
CONTROLS:  IR_EN=1	A_EN=0	B_EN=0	PDR_EN=0	PORT_EN=0	PORT_RD=1
           PC_EN=0	PC_LOAD=0	ALU_EN=0	ALU_OE=0	RAM_OE=0	RDR_EN=0	RAM_CS=1
I/O:       IO=[1]00000001
 

TIME = 200
CONTROL:   CLK=0	RST_=1
OPERATION: INSTRUCTION=[0001][0][1000011][000000000000][00000000]
           PHASE=FETCH	OPCODE=0001	ADDR=[00]00000	I_DATA=[0]00000000
STORAGE:   MEM[0]=x	MEM[1]=x	MEM[2]=x
REGISTERS: A_REG=0	B_REG=0  	RDR_REG=x	DIR_REG=0	PORT_REG=x
SIGNALS:   RAMDATA=1	ALUOUT=[x]xxxxxxxx	BUS=00000001
FLAGS:     CF=x	ZF=x	SF=x	OF=x	IF=0
CONTROLS:  IR_EN=1	A_EN=0	B_EN=0	PDR_EN=0	PORT_EN=0	PORT_RD=1
           PC_EN=0	PC_LOAD=0	ALU_EN=0	ALU_OE=0	RAM_OE=0	RDR_EN=0	RAM_CS=1
I/O:       IO=[1]00000001
 

TIME = 250
CONTROL:   CLK=1	RST_=1
OPERATION: INSTRUCTION=[0001][0][1000011][000000000000][00000000]
           PHASE=DECODE	OPCODE=0001	ADDR=[00]00000	I_DATA=[0]00000000
STORAGE:   MEM[0]=x	MEM[1]=x	MEM[2]=x
REGISTERS: A_REG=0	B_REG=0  	RDR_REG=x	DIR_REG=0	PORT_REG=x
SIGNALS:   RAMDATA=1	ALUOUT=[x]xxxxxxxx	BUS=00000001
FLAGS:     CF=x	ZF=x	SF=x	OF=x	IF=0
CONTROLS:  IR_EN=0	A_EN=0	B_EN=0	PDR_EN=0	PORT_EN=0	PORT_RD=1
           PC_EN=0	PC_LOAD=0	ALU_EN=0	ALU_OE=0	RAM_OE=0	RDR_EN=0	RAM_CS=0
I/O:       IO=[1]00000001
 

TIME = 300
CONTROL:   CLK=0	RST_=1
OPERATION: INSTRUCTION=[0001][0][1000011][000000000000][00000000]
           PHASE=DECODE	OPCODE=0001	ADDR=[00]00000	I_DATA=[0]00000000
STORAGE:   MEM[0]=x	MEM[1]=x	MEM[2]=x
REGISTERS: A_REG=0	B_REG=0  	RDR_REG=x	DIR_REG=0	PORT_REG=x
SIGNALS:   RAMDATA=1	ALUOUT=[x]xxxxxxxx	BUS=00000001
FLAGS:     CF=x	ZF=x	SF=x	OF=x	IF=0
CONTROLS:  IR_EN=0	A_EN=0	B_EN=0	PDR_EN=0	PORT_EN=0	PORT_RD=1
           PC_EN=0	PC_LOAD=0	ALU_EN=0	ALU_OE=0	RAM_OE=0	RDR_EN=0	RAM_CS=0
I/O:       IO=[1]00000001
 

TIME = 350
CONTROL:   CLK=1	RST_=1
OPERATION: INSTRUCTION=[0001][0][1000011][000000000000][00000000]
           PHASE=EXECUTE	OPCODE=0001	ADDR=[00]00000	I_DATA=[0]00000000
STORAGE:   MEM[0]=1	MEM[1]=x	MEM[2]=x
REGISTERS: A_REG=0	B_REG=0  	RDR_REG=x	DIR_REG=0	PORT_REG=x
SIGNALS:   RAMDATA=1	ALUOUT=[x]xxxxxxxx	BUS=00000001
FLAGS:     CF=x	ZF=x	SF=x	OF=x	IF=0
CONTROLS:  IR_EN=0	A_EN=0	B_EN=0	PDR_EN=0	PORT_EN=0	PORT_RD=1
           PC_EN=0	PC_LOAD=0	ALU_EN=0	ALU_OE=0	RAM_OE=0	RDR_EN=0	RAM_CS=0
I/O:       IO=[1]00000001
 

TIME = 400
CONTROL:   CLK=0	RST_=1
OPERATION: INSTRUCTION=[0001][0][1000011][000000000000][00000000]
           PHASE=EXECUTE	OPCODE=0001	ADDR=[00]00000	I_DATA=[0]00000000
STORAGE:   MEM[0]=1	MEM[1]=x	MEM[2]=x
REGISTERS: A_REG=0	B_REG=0  	RDR_REG=x	DIR_REG=0	PORT_REG=x
SIGNALS:   RAMDATA=1	ALUOUT=[x]xxxxxxxx	BUS=00000001
FLAGS:     CF=x	ZF=x	SF=x	OF=x	IF=0
CONTROLS:  IR_EN=0	A_EN=0	B_EN=0	PDR_EN=0	PORT_EN=0	PORT_RD=1
           PC_EN=0	PC_LOAD=0	ALU_EN=0	ALU_OE=0	RAM_OE=0	RDR_EN=0	RAM_CS=0
I/O:       IO=[1]00000001
 

TIME = 450
CONTROL:   CLK=1	RST_=1
OPERATION: INSTRUCTION=[0001][0][1000011][000000000000][00000000]
           PHASE=UPDATE	OPCODE=0001	ADDR=[00]00000	I_DATA=[0]00000000
STORAGE:   MEM[0]=1	MEM[1]=x	MEM[2]=x
REGISTERS: A_REG=0	B_REG=0  	RDR_REG=x	DIR_REG=0	PORT_REG=x
SIGNALS:   RAMDATA=1	ALUOUT=[x]xxxxxxxx	BUS=00000001
FLAGS:     CF=x	ZF=x	SF=x	OF=x	IF=0
CONTROLS:  IR_EN=0	A_EN=0	B_EN=0	PDR_EN=0	PORT_EN=0	PORT_RD=1
           PC_EN=1	PC_LOAD=0	ALU_EN=0	ALU_OE=0	RAM_OE=0	RDR_EN=0	RAM_CS=1
I/O:       IO=[1]00000001
 

TIME = 500
CONTROL:   CLK=0	RST_=1
OPERATION: INSTRUCTION=[0001][0][1000011][000000000000][00000000]
           PHASE=UPDATE	OPCODE=0001	ADDR=[00]00000	I_DATA=[0]00000000
STORAGE:   MEM[0]=1	MEM[1]=x	MEM[2]=x
REGISTERS: A_REG=0	B_REG=0  	RDR_REG=x	DIR_REG=0	PORT_REG=x
SIGNALS:   RAMDATA=128	ALUOUT=[x]xxxxxxxx	BUS=10000000
FLAGS:     CF=x	ZF=x	SF=x	OF=x	IF=0
CONTROLS:  IR_EN=0	A_EN=0	B_EN=0	PDR_EN=0	PORT_EN=0	PORT_RD=1
           PC_EN=1	PC_LOAD=0	ALU_EN=0	ALU_OE=0	RAM_OE=0	RDR_EN=0	RAM_CS=1
I/O:       IO=[128]10000000
 

TIME = 550
CONTROL:   CLK=1	RST_=1
OPERATION: INSTRUCTION=[0001][0][1000011][000000000000][00000000]
           PHASE=FETCH	OPCODE=0001	ADDR=[01]00001	I_DATA=[0]00000000
STORAGE:   MEM[0]=1	MEM[1]=x	MEM[2]=x
REGISTERS: A_REG=0	B_REG=0  	RDR_REG=x	DIR_REG=0	PORT_REG=x
SIGNALS:   RAMDATA=128	ALUOUT=[x]xxxxxxxx	BUS=10000000
FLAGS:     CF=x	ZF=x	SF=x	OF=x	IF=0
CONTROLS:  IR_EN=1	A_EN=0	B_EN=0	PDR_EN=0	PORT_EN=0	PORT_RD=1
           PC_EN=0	PC_LOAD=0	ALU_EN=0	ALU_OE=0	RAM_OE=0	RDR_EN=0	RAM_CS=1
I/O:       IO=[128]10000000
 

TIME = 600
CONTROL:   CLK=0	RST_=1
OPERATION: INSTRUCTION=[0001][0][1000011][000000000000][00000000]
           PHASE=FETCH	OPCODE=0001	ADDR=[01]00001	I_DATA=[0]00000000
STORAGE:   MEM[0]=1	MEM[1]=x	MEM[2]=x
REGISTERS: A_REG=0	B_REG=0  	RDR_REG=x	DIR_REG=0	PORT_REG=x
SIGNALS:   RAMDATA=128	ALUOUT=[x]xxxxxxxx	BUS=10000000
FLAGS:     CF=x	ZF=x	SF=x	OF=x	IF=0
CONTROLS:  IR_EN=1	A_EN=0	B_EN=0	PDR_EN=0	PORT_EN=0	PORT_RD=1
           PC_EN=0	PC_LOAD=0	ALU_EN=0	ALU_OE=0	RAM_OE=0	RDR_EN=0	RAM_CS=1
I/O:       IO=[128]10000000
 

TIME = 650
CONTROL:   CLK=1	RST_=1
OPERATION: INSTRUCTION=[0001][0][1000011][000000000000][00000001]
           PHASE=DECODE	OPCODE=0001	ADDR=[01]00001	I_DATA=[1]00000001
STORAGE:   MEM[0]=1	MEM[1]=x	MEM[2]=x
REGISTERS: A_REG=0	B_REG=0  	RDR_REG=x	DIR_REG=0	PORT_REG=x
SIGNALS:   RAMDATA=128	ALUOUT=[x]xxxxxxxx	BUS=10000000
FLAGS:     CF=x	ZF=x	SF=x	OF=x	IF=0
CONTROLS:  IR_EN=0	A_EN=0	B_EN=0	PDR_EN=0	PORT_EN=0	PORT_RD=1
           PC_EN=0	PC_LOAD=0	ALU_EN=0	ALU_OE=0	RAM_OE=0	RDR_EN=0	RAM_CS=0
I/O:       IO=[128]10000000
 

TIME = 700
CONTROL:   CLK=0	RST_=1
OPERATION: INSTRUCTION=[0001][0][1000011][000000000000][00000001]
           PHASE=DECODE	OPCODE=0001	ADDR=[01]00001	I_DATA=[1]00000001
STORAGE:   MEM[0]=1	MEM[1]=x	MEM[2]=x
REGISTERS: A_REG=0	B_REG=0  	RDR_REG=x	DIR_REG=0	PORT_REG=x
SIGNALS:   RAMDATA=128	ALUOUT=[x]xxxxxxxx	BUS=10000000
FLAGS:     CF=x	ZF=x	SF=x	OF=x	IF=0
CONTROLS:  IR_EN=0	A_EN=0	B_EN=0	PDR_EN=0	PORT_EN=0	PORT_RD=1
           PC_EN=0	PC_LOAD=0	ALU_EN=0	ALU_OE=0	RAM_OE=0	RDR_EN=0	RAM_CS=0
I/O:       IO=[128]10000000
 

TIME = 750
CONTROL:   CLK=1	RST_=1
OPERATION: INSTRUCTION=[0001][0][1000011][000000000000][00000001]
           PHASE=EXECUTE	OPCODE=0001	ADDR=[01]00001	I_DATA=[1]00000001
STORAGE:   MEM[0]=1	MEM[1]=128	MEM[2]=x
REGISTERS: A_REG=0	B_REG=0  	RDR_REG=x	DIR_REG=0	PORT_REG=x
SIGNALS:   RAMDATA=128	ALUOUT=[x]xxxxxxxx	BUS=10000000
FLAGS:     CF=x	ZF=x	SF=x	OF=x	IF=0
CONTROLS:  IR_EN=0	A_EN=0	B_EN=0	PDR_EN=0	PORT_EN=0	PORT_RD=1
           PC_EN=0	PC_LOAD=0	ALU_EN=0	ALU_OE=0	RAM_OE=0	RDR_EN=0	RAM_CS=0
I/O:       IO=[128]10000000
 

TIME = 800
CONTROL:   CLK=0	RST_=1
OPERATION: INSTRUCTION=[0001][0][1000011][000000000000][00000001]
           PHASE=EXECUTE	OPCODE=0001	ADDR=[01]00001	I_DATA=[1]00000001
STORAGE:   MEM[0]=1	MEM[1]=128	MEM[2]=x
REGISTERS: A_REG=0	B_REG=0  	RDR_REG=x	DIR_REG=0	PORT_REG=x
SIGNALS:   RAMDATA=128	ALUOUT=[x]xxxxxxxx	BUS=10000000
FLAGS:     CF=x	ZF=x	SF=x	OF=x	IF=0
CONTROLS:  IR_EN=0	A_EN=0	B_EN=0	PDR_EN=0	PORT_EN=0	PORT_RD=1
           PC_EN=0	PC_LOAD=0	ALU_EN=0	ALU_OE=0	RAM_OE=0	RDR_EN=0	RAM_CS=0
I/O:       IO=[128]10000000
 

TIME = 850
CONTROL:   CLK=1	RST_=1
OPERATION: INSTRUCTION=[0001][0][1000011][000000000000][00000001]
           PHASE=UPDATE	OPCODE=0001	ADDR=[01]00001	I_DATA=[1]00000001
STORAGE:   MEM[0]=1	MEM[1]=128	MEM[2]=x
REGISTERS: A_REG=0	B_REG=0  	RDR_REG=x	DIR_REG=0	PORT_REG=x
SIGNALS:   RAMDATA=128	ALUOUT=[x]xxxxxxxx	BUS=10000000
FLAGS:     CF=x	ZF=x	SF=x	OF=x	IF=0
CONTROLS:  IR_EN=0	A_EN=0	B_EN=0	PDR_EN=0	PORT_EN=0	PORT_RD=1
           PC_EN=1	PC_LOAD=0	ALU_EN=0	ALU_OE=0	RAM_OE=0	RDR_EN=0	RAM_CS=1
I/O:       IO=[128]10000000
 

TIME = 900
CONTROL:   CLK=0	RST_=1
OPERATION: INSTRUCTION=[0001][0][1000011][000000000000][00000001]
           PHASE=UPDATE	OPCODE=0001	ADDR=[01]00001	I_DATA=[1]00000001
STORAGE:   MEM[0]=1	MEM[1]=128	MEM[2]=x
REGISTERS: A_REG=0	B_REG=0  	RDR_REG=x	DIR_REG=0	PORT_REG=x
SIGNALS:   RAMDATA=128	ALUOUT=[x]xxxxxxxx	BUS=10000000
FLAGS:     CF=x	ZF=x	SF=x	OF=x	IF=0
CONTROLS:  IR_EN=0	A_EN=0	B_EN=0	PDR_EN=0	PORT_EN=0	PORT_RD=1
           PC_EN=1	PC_LOAD=0	ALU_EN=0	ALU_OE=0	RAM_OE=0	RDR_EN=0	RAM_CS=1
I/O:       IO=[128]10000000
 

TIME = 950
CONTROL:   CLK=1	RST_=1
OPERATION: INSTRUCTION=[0001][0][1000011][000000000000][00000001]
           PHASE=FETCH	OPCODE=0001	ADDR=[02]00010	I_DATA=[1]00000001
STORAGE:   MEM[0]=1	MEM[1]=128	MEM[2]=x
REGISTERS: A_REG=0	B_REG=0  	RDR_REG=x	DIR_REG=0	PORT_REG=x
SIGNALS:   RAMDATA=128	ALUOUT=[x]xxxxxxxx	BUS=10000000
FLAGS:     CF=x	ZF=x	SF=x	OF=x	IF=0
CONTROLS:  IR_EN=1	A_EN=0	B_EN=0	PDR_EN=0	PORT_EN=0	PORT_RD=1
           PC_EN=0	PC_LOAD=0	ALU_EN=0	ALU_OE=0	RAM_OE=0	RDR_EN=0	RAM_CS=1
I/O:       IO=[128]10000000
 

TIME = 1000
CONTROL:   CLK=0	RST_=1
OPERATION: INSTRUCTION=[0001][0][1000011][000000000000][00000001]
           PHASE=FETCH	OPCODE=0001	ADDR=[02]00010	I_DATA=[1]00000001
STORAGE:   MEM[0]=1	MEM[1]=128	MEM[2]=x
REGISTERS: A_REG=0	B_REG=0  	RDR_REG=x	DIR_REG=0	PORT_REG=x
SIGNALS:   RAMDATA=128	ALUOUT=[x]xxxxxxxx	BUS=10000000
FLAGS:     CF=x	ZF=x	SF=x	OF=x	IF=0
CONTROLS:  IR_EN=1	A_EN=0	B_EN=0	PDR_EN=0	PORT_EN=0	PORT_RD=1
           PC_EN=0	PC_LOAD=0	ALU_EN=0	ALU_OE=0	RAM_OE=0	RDR_EN=0	RAM_CS=1
I/O:       IO=[128]10000000
 

TIME = 1050
CONTROL:   CLK=1	RST_=1
OPERATION: INSTRUCTION=[0000][0][1000000][000000000000][00000000]
           PHASE=DECODE	OPCODE=0000	ADDR=[02]00010	I_DATA=[x]xxxxxxxx
STORAGE:   MEM[0]=1	MEM[1]=128	MEM[2]=x
REGISTERS: A_REG=0	B_REG=0  	RDR_REG=x	DIR_REG=0	PORT_REG=x
SIGNALS:   RAMDATA=1	ALUOUT=[x]xxxxxxxx	BUS=00000001
FLAGS:     CF=x	ZF=x	SF=x	OF=x	IF=0
CONTROLS:  IR_EN=0	A_EN=1	B_EN=0	PDR_EN=0	PORT_EN=0	PORT_RD=0
           PC_EN=0	PC_LOAD=0	ALU_EN=0	ALU_OE=0	RAM_OE=1	RDR_EN=1	RAM_CS=0
I/O:       IO=[128]10000000
 

TIME = 1100
CONTROL:   CLK=0	RST_=1
OPERATION: INSTRUCTION=[0000][0][1000000][000000000000][00000000]
           PHASE=DECODE	OPCODE=0000	ADDR=[02]00010	I_DATA=[x]xxxxxxxx
STORAGE:   MEM[0]=1	MEM[1]=128	MEM[2]=x
REGISTERS: A_REG=0	B_REG=0  	RDR_REG=x	DIR_REG=0	PORT_REG=x
SIGNALS:   RAMDATA=1	ALUOUT=[x]xxxxxxxx	BUS=00000001
FLAGS:     CF=x	ZF=x	SF=x	OF=x	IF=0
CONTROLS:  IR_EN=0	A_EN=1	B_EN=0	PDR_EN=0	PORT_EN=0	PORT_RD=0
           PC_EN=0	PC_LOAD=0	ALU_EN=0	ALU_OE=0	RAM_OE=1	RDR_EN=1	RAM_CS=0
I/O:       IO=[128]10000000
 

TIME = 1150
CONTROL:   CLK=1	RST_=1
OPERATION: INSTRUCTION=[0000][0][1000000][000000000000][00000000]
           PHASE=EXECUTE	OPCODE=0000	ADDR=[02]00010	I_DATA=[1]00000001
STORAGE:   MEM[0]=1	MEM[1]=128	MEM[2]=x
REGISTERS: A_REG=x	B_REG=0  	RDR_REG=1	DIR_REG=0	PORT_REG=x
SIGNALS:   RAMDATA=1	ALUOUT=[x]xxxxxxxx	BUS=00000001
FLAGS:     CF=x	ZF=x	SF=x	OF=x	IF=0
CONTROLS:  IR_EN=0	A_EN=1	B_EN=0	PDR_EN=0	PORT_EN=0	PORT_RD=0
           PC_EN=0	PC_LOAD=0	ALU_EN=0	ALU_OE=0	RAM_OE=1	RDR_EN=1	RAM_CS=0
I/O:       IO=[128]10000000
 

TIME = 1200
CONTROL:   CLK=0	RST_=1
OPERATION: INSTRUCTION=[0000][0][1000000][000000000000][00000000]
           PHASE=EXECUTE	OPCODE=0000	ADDR=[02]00010	I_DATA=[1]00000001
STORAGE:   MEM[0]=1	MEM[1]=128	MEM[2]=x
REGISTERS: A_REG=x	B_REG=0  	RDR_REG=1	DIR_REG=0	PORT_REG=x
SIGNALS:   RAMDATA=1	ALUOUT=[x]xxxxxxxx	BUS=00000001
FLAGS:     CF=x	ZF=x	SF=x	OF=x	IF=0
CONTROLS:  IR_EN=0	A_EN=1	B_EN=0	PDR_EN=0	PORT_EN=0	PORT_RD=0
           PC_EN=0	PC_LOAD=0	ALU_EN=0	ALU_OE=0	RAM_OE=1	RDR_EN=1	RAM_CS=0
I/O:       IO=[128]10000000
 

TIME = 1250
CONTROL:   CLK=1	RST_=1
OPERATION: INSTRUCTION=[0000][0][1000000][000000000000][00000000]
           PHASE=UPDATE	OPCODE=0000	ADDR=[02]00010	I_DATA=[0]00000000
STORAGE:   MEM[0]=1	MEM[1]=128	MEM[2]=x
REGISTERS: A_REG=1	B_REG=0  	RDR_REG=1	DIR_REG=0	PORT_REG=x
SIGNALS:   RAMDATA=128	ALUOUT=[x]xxxxxxxx	BUS=10000000
FLAGS:     CF=x	ZF=x	SF=x	OF=x	IF=0
CONTROLS:  IR_EN=0	A_EN=0	B_EN=0	PDR_EN=0	PORT_EN=0	PORT_RD=1
           PC_EN=1	PC_LOAD=0	ALU_EN=0	ALU_OE=0	RAM_OE=0	RDR_EN=0	RAM_CS=1
I/O:       IO=[128]10000000
 

TIME = 1300
CONTROL:   CLK=0	RST_=1
OPERATION: INSTRUCTION=[0000][0][1000000][000000000000][00000000]
           PHASE=UPDATE	OPCODE=0000	ADDR=[02]00010	I_DATA=[0]00000000
STORAGE:   MEM[0]=1	MEM[1]=128	MEM[2]=x
REGISTERS: A_REG=1	B_REG=0  	RDR_REG=1	DIR_REG=0	PORT_REG=x
SIGNALS:   RAMDATA=128	ALUOUT=[x]xxxxxxxx	BUS=10000000
FLAGS:     CF=x	ZF=x	SF=x	OF=x	IF=0
CONTROLS:  IR_EN=0	A_EN=0	B_EN=0	PDR_EN=0	PORT_EN=0	PORT_RD=1
           PC_EN=1	PC_LOAD=0	ALU_EN=0	ALU_OE=0	RAM_OE=0	RDR_EN=0	RAM_CS=1
I/O:       IO=[128]10000000
 

TIME = 1350
CONTROL:   CLK=1	RST_=1
OPERATION: INSTRUCTION=[0000][0][1000000][000000000000][00000000]
           PHASE=FETCH	OPCODE=0000	ADDR=[03]00011	I_DATA=[0]00000000
STORAGE:   MEM[0]=1	MEM[1]=128	MEM[2]=x
REGISTERS: A_REG=1	B_REG=0  	RDR_REG=1	DIR_REG=0	PORT_REG=x
SIGNALS:   RAMDATA=128	ALUOUT=[x]xxxxxxxx	BUS=10000000
FLAGS:     CF=x	ZF=x	SF=x	OF=x	IF=0
CONTROLS:  IR_EN=1	A_EN=0	B_EN=0	PDR_EN=0	PORT_EN=0	PORT_RD=1
           PC_EN=0	PC_LOAD=0	ALU_EN=0	ALU_OE=0	RAM_OE=0	RDR_EN=0	RAM_CS=1
I/O:       IO=[128]10000000
 

TIME = 1400
CONTROL:   CLK=0	RST_=1
OPERATION: INSTRUCTION=[0000][0][1000000][000000000000][00000000]
           PHASE=FETCH	OPCODE=0000	ADDR=[03]00011	I_DATA=[0]00000000
STORAGE:   MEM[0]=1	MEM[1]=128	MEM[2]=x
REGISTERS: A_REG=1	B_REG=0  	RDR_REG=1	DIR_REG=0	PORT_REG=x
SIGNALS:   RAMDATA=128	ALUOUT=[x]xxxxxxxx	BUS=10000000
FLAGS:     CF=x	ZF=x	SF=x	OF=x	IF=0
CONTROLS:  IR_EN=1	A_EN=0	B_EN=0	PDR_EN=0	PORT_EN=0	PORT_RD=1
           PC_EN=0	PC_LOAD=0	ALU_EN=0	ALU_OE=0	RAM_OE=0	RDR_EN=0	RAM_CS=1
I/O:       IO=[128]10000000
 

TIME = 1450
CONTROL:   CLK=1	RST_=1
OPERATION: INSTRUCTION=[0000][0][1000001][000000000000][00000001]
           PHASE=DECODE	OPCODE=0000	ADDR=[03]00011	I_DATA=[1]00000001
STORAGE:   MEM[0]=1	MEM[1]=128	MEM[2]=x
REGISTERS: A_REG=1	B_REG=0  	RDR_REG=1	DIR_REG=0	PORT_REG=x
SIGNALS:   RAMDATA=128	ALUOUT=[x]xxxxxxxx	BUS=10000000
FLAGS:     CF=x	ZF=x	SF=x	OF=x	IF=0
CONTROLS:  IR_EN=0	A_EN=0	B_EN=1	PDR_EN=0	PORT_EN=0	PORT_RD=0
           PC_EN=0	PC_LOAD=0	ALU_EN=0	ALU_OE=0	RAM_OE=1	RDR_EN=1	RAM_CS=0
I/O:       IO=[128]10000000
 

TIME = 1500
CONTROL:   CLK=0	RST_=1
OPERATION: INSTRUCTION=[0000][0][1000001][000000000000][00000001]
           PHASE=DECODE	OPCODE=0000	ADDR=[03]00011	I_DATA=[1]00000001
STORAGE:   MEM[0]=1	MEM[1]=128	MEM[2]=x
REGISTERS: A_REG=1	B_REG=0  	RDR_REG=1	DIR_REG=0	PORT_REG=x
SIGNALS:   RAMDATA=128	ALUOUT=[x]xxxxxxxx	BUS=10000000
FLAGS:     CF=x	ZF=x	SF=x	OF=x	IF=0
CONTROLS:  IR_EN=0	A_EN=0	B_EN=1	PDR_EN=0	PORT_EN=0	PORT_RD=0
           PC_EN=0	PC_LOAD=0	ALU_EN=0	ALU_OE=0	RAM_OE=1	RDR_EN=1	RAM_CS=0
I/O:       IO=[128]10000000
 

TIME = 1550
CONTROL:   CLK=1	RST_=1
OPERATION: INSTRUCTION=[0000][0][1000001][000000000000][00000001]
           PHASE=EXECUTE	OPCODE=0000	ADDR=[03]00011	I_DATA=[128]10000000
STORAGE:   MEM[0]=1	MEM[1]=128	MEM[2]=x
REGISTERS: A_REG=1	B_REG=1  	RDR_REG=128	DIR_REG=0	PORT_REG=x
SIGNALS:   RAMDATA=128	ALUOUT=[x]xxxxxxxx	BUS=10000000
FLAGS:     CF=x	ZF=x	SF=x	OF=x	IF=0
CONTROLS:  IR_EN=0	A_EN=0	B_EN=1	PDR_EN=0	PORT_EN=0	PORT_RD=0
           PC_EN=0	PC_LOAD=0	ALU_EN=0	ALU_OE=0	RAM_OE=1	RDR_EN=1	RAM_CS=0
I/O:       IO=[128]10000000
 

TIME = 1600
CONTROL:   CLK=0	RST_=1
OPERATION: INSTRUCTION=[0000][0][1000001][000000000000][00000001]
           PHASE=EXECUTE	OPCODE=0000	ADDR=[03]00011	I_DATA=[128]10000000
STORAGE:   MEM[0]=1	MEM[1]=128	MEM[2]=x
REGISTERS: A_REG=1	B_REG=1  	RDR_REG=128	DIR_REG=0	PORT_REG=x
SIGNALS:   RAMDATA=128	ALUOUT=[x]xxxxxxxx	BUS=10000000
FLAGS:     CF=x	ZF=x	SF=x	OF=x	IF=0
CONTROLS:  IR_EN=0	A_EN=0	B_EN=1	PDR_EN=0	PORT_EN=0	PORT_RD=0
           PC_EN=0	PC_LOAD=0	ALU_EN=0	ALU_OE=0	RAM_OE=1	RDR_EN=1	RAM_CS=0
I/O:       IO=[128]10000000
 

TIME = 1650
CONTROL:   CLK=1	RST_=1
OPERATION: INSTRUCTION=[0000][0][1000001][000000000000][00000001]
           PHASE=UPDATE	OPCODE=0000	ADDR=[03]00011	I_DATA=[1]00000001
STORAGE:   MEM[0]=1	MEM[1]=128	MEM[2]=x
REGISTERS: A_REG=1	B_REG=128  	RDR_REG=128	DIR_REG=0	PORT_REG=x
SIGNALS:   RAMDATA=128	ALUOUT=[x]xxxxxxxx	BUS=10000000
FLAGS:     CF=x	ZF=x	SF=x	OF=x	IF=0
CONTROLS:  IR_EN=0	A_EN=0	B_EN=0	PDR_EN=0	PORT_EN=0	PORT_RD=1
           PC_EN=1	PC_LOAD=0	ALU_EN=0	ALU_OE=0	RAM_OE=0	RDR_EN=0	RAM_CS=1
I/O:       IO=[128]10000000
 

TIME = 1700
CONTROL:   CLK=0	RST_=1
OPERATION: INSTRUCTION=[0000][0][1000001][000000000000][00000001]
           PHASE=UPDATE	OPCODE=0000	ADDR=[03]00011	I_DATA=[1]00000001
STORAGE:   MEM[0]=1	MEM[1]=128	MEM[2]=x
REGISTERS: A_REG=1	B_REG=128  	RDR_REG=128	DIR_REG=0	PORT_REG=x
SIGNALS:   RAMDATA=128	ALUOUT=[x]xxxxxxxx	BUS=10000000
FLAGS:     CF=x	ZF=x	SF=x	OF=x	IF=0
CONTROLS:  IR_EN=0	A_EN=0	B_EN=0	PDR_EN=0	PORT_EN=0	PORT_RD=1
           PC_EN=1	PC_LOAD=0	ALU_EN=0	ALU_OE=0	RAM_OE=0	RDR_EN=0	RAM_CS=1
I/O:       IO=[128]10000000
 

TIME = 1750
CONTROL:   CLK=1	RST_=1
OPERATION: INSTRUCTION=[0000][0][1000001][000000000000][00000001]
           PHASE=FETCH	OPCODE=0000	ADDR=[04]00100	I_DATA=[1]00000001
STORAGE:   MEM[0]=1	MEM[1]=128	MEM[2]=x
REGISTERS: A_REG=1	B_REG=128  	RDR_REG=128	DIR_REG=0	PORT_REG=x
SIGNALS:   RAMDATA=128	ALUOUT=[x]xxxxxxxx	BUS=10000000
FLAGS:     CF=x	ZF=x	SF=x	OF=x	IF=0
CONTROLS:  IR_EN=1	A_EN=0	B_EN=0	PDR_EN=0	PORT_EN=0	PORT_RD=1
           PC_EN=0	PC_LOAD=0	ALU_EN=0	ALU_OE=0	RAM_OE=0	RDR_EN=0	RAM_CS=1
I/O:       IO=[128]10000000
 

TIME = 1800
CONTROL:   CLK=0	RST_=1
OPERATION: INSTRUCTION=[0000][0][1000001][000000000000][00000001]
           PHASE=FETCH	OPCODE=0000	ADDR=[04]00100	I_DATA=[1]00000001
STORAGE:   MEM[0]=1	MEM[1]=128	MEM[2]=x
REGISTERS: A_REG=1	B_REG=128  	RDR_REG=128	DIR_REG=0	PORT_REG=x
SIGNALS:   RAMDATA=128	ALUOUT=[x]xxxxxxxx	BUS=10000000
FLAGS:     CF=x	ZF=x	SF=x	OF=x	IF=0
